<?xml version="1.0" encoding="UTF-8" standalone="no"?>
<svg
   xmlns:dc="http://purl.org/dc/elements/1.1/"
   xmlns:cc="http://creativecommons.org/ns#"
   xmlns:rdf="http://www.w3.org/1999/02/22-rdf-syntax-ns#"
   xmlns:svg="http://www.w3.org/2000/svg"
   xmlns="http://www.w3.org/2000/svg"
   height="256"
   width="256"
   xml:space="preserve"
   viewBox="0 0 256.0015 256.0015"
   y="0px"
   x="0px"
   id="Layer_1"
   version="1.1"><metadata
     id="metadata47"><rdf:RDF><cc:Work
         rdf:about=""><dc:format>image/svg+xml</dc:format><dc:type
           rdf:resource="http://purl.org/dc/dcmitype/StillImage" /><dc:title></dc:title></cc:Work></rdf:RDF></metadata><defs
     id="defs45" /><g
     transform="translate(0,-256.0015)"
     id="g13" /><g
     transform="translate(0,-256.0015)"
     id="g15" /><g
     transform="translate(0,-256.0015)"
     id="g17" /><g
     transform="translate(0,-256.0015)"
     id="g19" /><g
     transform="translate(0,-256.0015)"
     id="g21" /><g
     transform="translate(0,-256.0015)"
     id="g23" /><g
     transform="translate(0,-256.0015)"
     id="g25" /><g
     transform="translate(0,-256.0015)"
     id="g27" /><g
     transform="translate(0,-256.0015)"
     id="g29" /><g
     transform="translate(0,-256.0015)"
     id="g31" /><g
     transform="translate(0,-256.0015)"
     id="g33" /><g
     transform="translate(0,-256.0015)"
     id="g35" /><g
     transform="translate(0,-256.0015)"
     id="g37" /><g
     transform="translate(0,-256.0015)"
     id="g39" /><g
     transform="translate(0,-256.0015)"
     id="g41" /><circle
     r="128.00075"
     cy="128.00075"
     cx="128.00075"
     id="path4175"
     style="opacity:1;fill:#2a363b;fill-opacity:1;fill-rule:nonzero;stroke:none;stroke-width:10;stroke-linecap:round;stroke-linejoin:round;stroke-miterlimit:4;stroke-dasharray:none;stroke-dashoffset:0;stroke-opacity:1" /><g
     style="fill:#14b5fa;fill-opacity:1"
     transform="matrix(0.3191508,0,0,0.3191508,53.00031,53.00031)"
     id="g5104"><g
       style="fill:#14b5fa;fill-opacity:1"
       id="g5054"><path
         style="fill:#14b5fa;fill-opacity:1"
         d="m 462.5,94.156 -22.5,0 0,-2.5 C 440,71.358 423.178,54.844 402.5,54.844 l -335,0 C 46.822,54.844 30,71.358 30,91.656 l 0,2.5 -22.5,0 c -4.142,0 -7.5,3.358 -7.5,7.5 l 0,306 c 0,4.142 3.358,7.5 7.5,7.5 l 168.472,0 c 3.113,0 5.903,-1.923 7.01,-4.833 l 27.253,-71.646 c 3.46,-9.097 15.032,-17.076 24.765,-17.076 9.733,0 21.305,7.979 24.766,17.077 l 27.252,71.645 c 1.107,2.91 3.897,4.833 7.01,4.833 l 168.472,0 c 4.142,0 7.5,-3.358 7.5,-7.5 l 0,-306 c 0,-4.142 -3.358,-7.5 -7.5,-7.5 z M 45,91.656 C 45,79.629 55.093,69.844 67.5,69.844 l 335,0 c 12.407,0 22.5,9.785 22.5,21.812 l 0,2.5 -380,0 0,-2.5 z m 410,308.5 -155.8,0 -25.414,-66.811 C 268.082,318.348 251.045,306.601 235,306.601 c -16.045,0 -33.082,11.748 -38.785,26.744 l -25.415,66.811 -155.8,0 0,-291 440,0 0,291 z"
         id="path5056" /><path
         style="fill:#14b5fa;fill-opacity:1"
         d="m 133.5,187.156 c -37.22,0 -67.5,30.28 -67.5,67.5 0,37.22 30.28,67.5 67.5,67.5 37.22,0 67.5,-30.28 67.5,-67.5 0,-37.22 -30.28,-67.5 -67.5,-67.5 z m 0,120 c -28.949,0 -52.5,-23.551 -52.5,-52.5 0,-28.949 23.551,-52.5 52.5,-52.5 28.949,0 52.5,23.551 52.5,52.5 0,28.949 -23.551,52.5 -52.5,52.5 z"
         id="path5058" /><path
         style="fill:#14b5fa;fill-opacity:1"
         d="m 133.5,217.156 c -4.142,0 -7.5,3.358 -7.5,7.5 0,4.142 3.358,7.5 7.5,7.5 12.407,0 22.5,10.093 22.5,22.5 0,12.407 -10.093,22.5 -22.5,22.5 -12.407,0 -22.5,-10.093 -22.5,-22.5 0,-4.142 -3.358,-7.5 -7.5,-7.5 -4.142,0 -7.5,3.358 -7.5,7.5 0,20.678 16.822,37.5 37.5,37.5 20.678,0 37.5,-16.822 37.5,-37.5 0,-20.678 -16.822,-37.5 -37.5,-37.5 z"
         id="path5060" /><path
         style="fill:#14b5fa;fill-opacity:1"
         d="m 336.5,187.156 c -37.22,0 -67.5,30.28 -67.5,67.5 0,37.22 30.28,67.5 67.5,67.5 37.22,0 67.5,-30.28 67.5,-67.5 0,-37.22 -30.28,-67.5 -67.5,-67.5 z m 0,120 c -28.949,0 -52.5,-23.551 -52.5,-52.5 0,-28.949 23.551,-52.5 52.5,-52.5 28.949,0 52.5,23.551 52.5,52.5 0,28.949 -23.551,52.5 -52.5,52.5 z"
         id="path5062" /><path
         style="fill:#14b5fa;fill-opacity:1"
         d="m 336.5,217.156 c -4.142,0 -7.5,3.358 -7.5,7.5 0,4.142 3.358,7.5 7.5,7.5 12.407,0 22.5,10.093 22.5,22.5 0,12.407 -10.093,22.5 -22.5,22.5 -12.407,0 -22.5,-10.093 -22.5,-22.5 0,-4.142 -3.358,-7.5 -7.5,-7.5 -4.142,0 -7.5,3.358 -7.5,7.5 0,20.678 16.822,37.5 37.5,37.5 20.678,0 37.5,-16.822 37.5,-37.5 0,-20.678 -16.822,-37.5 -37.5,-37.5 z"
         id="path5064" /><path
         style="fill:#14b5fa;fill-opacity:1"
         d="m 254.324,380.156 -38.647,0 c -4.142,0 -7.5,3.358 -7.5,7.5 0,4.142 3.358,7.5 7.5,7.5 l 38.647,0 c 4.142,0 7.5,-3.358 7.5,-7.5 0,-4.142 -3.358,-7.5 -7.5,-7.5 z"
         id="path5066" /></g><g
       style="fill:#14b5fa;fill-opacity:1"
       id="g5068" /><g
       style="fill:#14b5fa;fill-opacity:1"
       id="g5070" /><g
       style="fill:#14b5fa;fill-opacity:1"
       id="g5072" /><g
       style="fill:#14b5fa;fill-opacity:1"
       id="g5074" /><g
       style="fill:#14b5fa;fill-opacity:1"
       id="g5076" /><g
       style="fill:#14b5fa;fill-opacity:1"
       id="g5078" /><g
       style="fill:#14b5fa;fill-opacity:1"
       id="g5080" /><g
       style="fill:#14b5fa;fill-opacity:1"
       id="g5082" /><g
       style="fill:#14b5fa;fill-opacity:1"
       id="g5084" /><g
       style="fill:#14b5fa;fill-opacity:1"
       id="g5086" /><g
       style="fill:#14b5fa;fill-opacity:1"
       id="g5088" /><g
       style="fill:#14b5fa;fill-opacity:1"
       id="g5090" /><g
       style="fill:#14b5fa;fill-opacity:1"
       id="g5092" /><g
       style="fill:#14b5fa;fill-opacity:1"
       id="g5094" /><g
       style="fill:#14b5fa;fill-opacity:1"
       id="g5096" /></g></svg>